{
  "images" : [
    {
      "idiom" : "universal",
      "filename" : "33x28 (c-user-tangerine).png",
      "scale" : "1x"
    },
    {
      "idiom" : "universal",
      "filename" : "66x56(c-user-tangerine).png",
      "scale" : "2x"
    },
    {
      "idiom" : "universal",
      "filename" : "99 û 84 (c-user-tangerine).png",
      "scale" : "3x"
    }
  ],
  "info" : {
    "version" : 1,
    "author" : "xcode"
  }
}